TopLevel2806.vcd
$date
     Wed Apr  3 17:26:36 2024

$end
$version
     Generated by HCM VCD formatter for cell: TopLevel2806_flat
$end
$timescale
     1s
$end
$scope module DUT $end
$var wire 1 " CLK $end
$var wire 1 # I[0] $end
$var wire 1 $ I[1] $end
$var wire 1 % I[2] $end
$var wire 1 & I[3] $end
$var wire 1 ' S[0] $end
$var wire 1 ( S[1] $end
$var wire 1 ) S[2] $end
$scope module ff1/and_0 $end
$upscope $end
$scope module ff1/and_1 $end
$upscope $end
$scope module ff1/and_2 $end
$upscope $end
$scope module ff1/and_3 $end
$upscope $end
$scope module ff1/nor_0 $end
$upscope $end
$scope module ff1/nor_1 $end
$upscope $end
$scope module ff1/nor_2 $end
$upscope $end
$scope module ff1/nor_3 $end
$upscope $end
$scope module ff1/not_0 $end
$upscope $end
$scope module ff1/not_1 $end
$upscope $end
$scope module ff1/not_2 $end
$upscope $end
$scope module ff1/not_3 $end
$upscope $end
$scope module ff1/not_4 $end
$upscope $end
$scope module ff2/and_0 $end
$upscope $end
$scope module ff2/and_1 $end
$upscope $end
$scope module ff2/and_2 $end
$upscope $end
$scope module ff2/and_3 $end
$upscope $end
$scope module ff2/nor_0 $end
$upscope $end
$scope module ff2/nor_1 $end
$upscope $end
$scope module ff2/nor_2 $end
$upscope $end
$scope module ff2/nor_3 $end
$upscope $end
$scope module ff2/not_0 $end
$upscope $end
$scope module ff2/not_1 $end
$upscope $end
$scope module ff2/not_2 $end
$upscope $end
$scope module ff2/not_3 $end
$upscope $end
$scope module ff2/not_4 $end
$upscope $end
$scope module ff3/and_0 $end
$upscope $end
$scope module ff3/and_1 $end
$upscope $end
$scope module ff3/and_2 $end
$upscope $end
$scope module ff3/and_3 $end
$upscope $end
$scope module ff3/nor_0 $end
$upscope $end
$scope module ff3/nor_1 $end
$upscope $end
$scope module ff3/nor_2 $end
$upscope $end
$scope module ff3/nor_3 $end
$upscope $end
$scope module ff3/not_0 $end
$upscope $end
$scope module ff3/not_1 $end
$upscope $end
$scope module ff3/not_2 $end
$upscope $end
$scope module ff3/not_3 $end
$upscope $end
$scope module ff3/not_4 $end
$upscope $end
$scope module ff4/and_0 $end
$upscope $end
$scope module ff4/and_1 $end
$upscope $end
$scope module ff4/and_2 $end
$upscope $end
$scope module ff4/and_3 $end
$upscope $end
$scope module ff4/nor_0 $end
$upscope $end
$scope module ff4/nor_1 $end
$upscope $end
$scope module ff4/nor_2 $end
$upscope $end
$scope module ff4/nor_3 $end
$upscope $end
$scope module ff4/not_0 $end
$upscope $end
$scope module ff4/not_1 $end
$upscope $end
$scope module ff4/not_2 $end
$upscope $end
$scope module ff4/not_3 $end
$upscope $end
$scope module ff4/not_4 $end
$upscope $end
$scope module ff5/and_0 $end
$upscope $end
$scope module ff5/and_1 $end
$upscope $end
$scope module ff5/and_2 $end
$upscope $end
$scope module ff5/and_3 $end
$upscope $end
$scope module ff5/nor_0 $end
$upscope $end
$scope module ff5/nor_1 $end
$upscope $end
$scope module ff5/nor_2 $end
$upscope $end
$scope module ff5/nor_3 $end
$upscope $end
$scope module ff5/not_0 $end
$upscope $end
$scope module ff5/not_1 $end
$upscope $end
$scope module ff5/not_2 $end
$upscope $end
$scope module ff5/not_3 $end
$upscope $end
$scope module ff5/not_4 $end
$upscope $end
$scope module ff6/and_0 $end
$upscope $end
$scope module ff6/and_1 $end
$upscope $end
$scope module ff6/and_2 $end
$upscope $end
$scope module ff6/and_3 $end
$upscope $end
$scope module ff6/nor_0 $end
$upscope $end
$scope module ff6/nor_1 $end
$upscope $end
$scope module ff6/nor_2 $end
$upscope $end
$scope module ff6/nor_3 $end
$upscope $end
$scope module ff6/not_0 $end
$upscope $end
$scope module ff6/not_1 $end
$upscope $end
$scope module ff6/not_2 $end
$upscope $end
$scope module ff6/not_3 $end
$upscope $end
$scope module ff6/not_4 $end
$upscope $end
$scope module i1 $end
$upscope $end
$scope module i2 $end
$upscope $end
$scope module i3 $end
$upscope $end
$scope module i4 $end
$upscope $end
$scope module i5 $end
$upscope $end
$scope module i6 $end
$upscope $end
$scope module i7 $end
$upscope $end
$scope module i8 $end
$upscope $end
$scope module i9 $end
$upscope $end
$upscope $end
$enddefinitions $end
#0
$dumpvars
0"
0#
0$
0%
0&
1'
0(
1)
#1
1"
0#
0$
0%
0&
0'
1(
1)
#2
0"
1#
0$
0%
0&
0'
1(
1)
#3
1"
1#
0$
0%
0&
0'
1(
1)
#4
0"
0#
1$
0%
0&
0'
1(
1)
#5
1"
0#
1$
0%
0&
1'
0(
1)
#6
0"
1#
1$
0%
0&
1'
0(
1)
#7
1"
1#
1$
0%
0&
0'
0(
1)
#8
0"
0#
0$
1%
0&
0'
0(
1)
#9
1"
0#
0$
1%
0&
0'
1(
1)
#10
0"
1#
0$
1%
0&
0'
1(
1)
#11
1"
1#
0$
1%
0&
0'
1(
1)
#12
0"
0#
1$
1%
0&
0'
1(
1)
#13
1"
0#
1$
1%
0&
0'
0(
1)
#14
0"
1#
1$
1%
0&
0'
0(
1)
#15
1"
1#
1$
1%
0&
0'
0(
1)
#16
0"
0#
0$
0%
1&
0'
0(
1)
#17
1"
0#
0$
0%
1&
0'
0(
1)
#18
0"
1#
0$
0%
1&
0'
0(
1)
#19
1"
1#
0$
0%
1&
0'
1(
1)
#20
0"
0#
1$
0%
1&
0'
1(
1)
#21
1"
0#
1$
0%
1&
1'
0(
1)
#22
0"
1#
1$
0%
1&
1'
0(
1)
#23
1"
1#
1$
0%
1&
0'
0(
1)
#24
0"
0#
0$
1%
1&
0'
0(
1)
#25
1"
0#
0$
1%
1&
0'
1(
1)
#26
0"
1#
0$
1%
1&
0'
1(
1)
#27
1"
1#
0$
1%
1&
0'
1(
1)
#28
0"
0#
1$
1%
1&
0'
1(
1)
#29
1"
0#
1$
1%
1&
0'
0(
1)
#30
0"
1#
1$
1%
1&
0'
0(
1)
#31
1"
1#
1$
1%
1&
0'
0(
1)
#32
0"
0#
0$
0%
0&
0'
0(
1)
#33
1"
0#
0$
0%
0&
0'
1(
1)
#34
0"
1#
0$
0%
0&
0'
1(
1)
#35
1"
1#
0$
0%
0&
0'
1(
1)
#36
0"
0#
1$
0%
0&
0'
1(
1)
#37
1"
0#
1$
0%
0&
1'
0(
1)
#38
0"
1#
1$
0%
0&
1'
0(
1)
#39
1"
1#
1$
0%
0&
0'
0(
1)
#40
0"
0#
0$
1%
0&
0'
0(
1)
#41
1"
0#
0$
1%
0&
0'
1(
1)
#42
0"
1#
0$
1%
0&
0'
1(
1)
#43
1"
1#
0$
1%
0&
0'
1(
1)
#44
0"
0#
1$
1%
0&
0'
1(
1)
#45
1"
0#
1$
1%
0&
0'
0(
1)
#46
0"
1#
1$
1%
0&
0'
0(
1)
#47
1"
1#
1$
1%
0&
0'
0(
1)
#48
0"
0#
0$
0%
1&
0'
0(
1)
#49
1"
0#
0$
0%
1&
0'
0(
1)
#50
0"
1#
0$
0%
1&
0'
0(
1)
#51
1"
1#
0$
0%
1&
0'
1(
1)
#52
0"
0#
1$
0%
1&
0'
1(
1)
#53
1"
0#
1$
0%
1&
1'
0(
1)
#54
0"
1#
1$
0%
1&
1'
0(
1)
#55
1"
1#
1$
0%
1&
0'
0(
1)
#56
0"
0#
0$
1%
1&
0'
0(
1)
#57
1"
0#
0$
1%
1&
0'
1(
1)
#58
0"
1#
0$
1%
1&
0'
1(
1)
#59
1"
1#
0$
1%
1&
0'
1(
1)
#60
0"
0#
1$
1%
1&
0'
1(
1)
#61
1"
0#
1$
1%
1&
0'
0(
1)
#62
0"
1#
1$
1%
1&
0'
0(
1)
#63
1"
1#
1$
1%
1&
0'
0(
1)
